<?xml version="1.0" encoding="UTF-8"?>
<session version="1.0">
<refactoring comment="Rename type &apos;it.unibo.homemanager.meteo.ManageAgent&apos; to &apos;AgentManager&apos;&#x0D;&#x0A;- Original project: &apos;HomeManager&apos;&#x0D;&#x0A;- Original element: &apos;it.unibo.homemanager.meteo.ManageAgent&apos;&#x0D;&#x0A;- Renamed element: &apos;it.unibo.homemanager.meteo.AgentManager&apos;&#x0D;&#x0A;- Update references to refactored element&#x0D;&#x0A;- Update textual occurrences in comments and strings" description="Rename type &apos;ManageAgent&apos;" flags="589830" id="org.eclipse.jdt.ui.rename.type" input="/src&lt;it.unibo.homemanager.meteo{ManageAgent.java[ManageAgent" matchStrategy="1" name="AgentManager" qualified="false" references="true" similarDeclarations="false" stamp="1441036332527" textual="false" version="1.0"/>
</session>